module gitlab.com/MixedMachine/proglog

go 1.16

require (
	github.com/golang/protobuf v1.4.3
	github.com/gorilla/mux v1.8.0
	github.com/stretchr/testify v1.7.0
	github.com/tysontate/gommap v0.0.0-20210506040252-ef38c88b18e1
	google.golang.org/genproto v0.0.0-20200526211855-cb27e3aa2013
	google.golang.org/grpc v1.40.0
	google.golang.org/protobuf v1.25.0
	launchpad.net/gocheck v0.0.0-20140225173054-000000000087 // indirect
)
